{
  "formatVersion": 1,
  "database": {
    "version": 1,
    "identityHash": "7c07f174fde02d74f9f2a4d205dbac74",
    "entities": [
      {
        "tableName": "ParkingDb",
        "createSql": "CREATE TABLE IF NOT EXISTS `${TABLE_NAME}` (`id` INTEGER PRIMARY KEY AUTOINCREMENT NOT NULL, `name` TEXT, `parkingType` TEXT, `vehicleOwner` TEXT, `mobile` TEXT, `tranNo` TEXT, `mobParkInDt` TEXT, `parkingInHrMin` TEXT, `parkingOut` TEXT, `billAmount` TEXT, `parkingHours` TEXT, `parkingOutDate` TEXT, `mobParkOutDt` TEXT, `vehicleNumber` TEXT, `vehicleType` TEXT, `parkingDays` TEXT, `parkingMinutes` TEXT, `image` TEXT, `imageFilePathGallery` TEXT, `exitdone` TEXT, `copytoserver` TEXT, `deleted` TEXT, `owneridimage` TEXT, `cgst` TEXT, `sgst` TEXT, `srno` TEXT, `addoncharges` TEXT, `price` TEXT)",
        "fields": [
          {
            "fieldPath": "id",
            "columnName": "id",
            "affinity": "INTEGER",
            "notNull": true
          },
          {
            "fieldPath": "name",
            "columnName": "name",
            "affinity": "TEXT",
            "notNull": false
          },
          {
            "fieldPath": "parkingType",
            "columnName": "parkingType",
            "affinity": "TEXT",
            "notNull": false
          },
          {
            "fieldPath": "vehicleOwner",
            "columnName": "vehicleOwner",
            "affinity": "TEXT",
            "notNull": false
          },
          {
            "fieldPath": "mobile",
            "columnName": "mobile",
            "affinity": "TEXT",
            "notNull": false
          },
          {
            "fieldPath": "tranNo",
            "columnName": "tranNo",
            "affinity": "TEXT",
            "notNull": false
          },
          {
            "fieldPath": "mobParkInDt",
            "columnName": "mobParkInDt",
            "affinity": "TEXT",
            "notNull": false
          },
          {
            "fieldPath": "parkingInHrMin",
            "columnName": "parkingInHrMin",
            "affinity": "TEXT",
            "notNull": false
          },
          {
            "fieldPath": "parkingOut",
            "columnName": "parkingOut",
            "affinity": "TEXT",
            "notNull": false
          },
          {
            "fieldPath": "billAmount",
            "columnName": "billAmount",
            "affinity": "TEXT",
            "notNull": false
          },
          {
            "fieldPath": "parkingHours",
            "columnName": "parkingHours",
            "affinity": "TEXT",
            "notNull": false
          },
          {
            "fieldPath": "parkingOutDate",
            "columnName": "parkingOutDate",
            "affinity": "TEXT",
            "notNull": false
          },
          {
            "fieldPath": "mobParkOutDt",
            "columnName": "mobParkOutDt",
            "affinity": "TEXT",
            "notNull": false
          },
          {
            "fieldPath": "vehicleNumber",
            "columnName": "vehicleNumber",
            "affinity": "TEXT",
            "notNull": false
          },
          {
            "fieldPath": "vehicleType",
            "columnName": "vehicleType",
            "affinity": "TEXT",
            "notNull": false
          },
          {
            "fieldPath": "parkingDays",
            "columnName": "parkingDays",
            "affinity": "TEXT",
            "notNull": false
          },
          {
            "fieldPath": "parkingMinutes",
            "columnName": "parkingMinutes",
            "affinity": "TEXT",
            "notNull": false
          },
          {
            "fieldPath": "image",
            "columnName": "image",
            "affinity": "TEXT",
            "notNull": false
          },
          {
            "fieldPath": "imageFilePathGallery",
            "columnName": "imageFilePathGallery",
            "affinity": "TEXT",
            "notNull": false
          },
          {
            "fieldPath": "exitdone",
            "columnName": "exitdone",
            "affinity": "TEXT",
            "notNull": false
          },
          {
            "fieldPath": "copytoserver",
            "columnName": "copytoserver",
            "affinity": "TEXT",
            "notNull": false
          },
          {
            "fieldPath": "deleted",
            "columnName": "deleted",
            "affinity": "TEXT",
            "notNull": false
          },
          {
            "fieldPath": "owneridimage",
            "columnName": "owneridimage",
            "affinity": "TEXT",
            "notNull": false
          },
          {
            "fieldPath": "cgst",
            "columnName": "cgst",
            "affinity": "TEXT",
            "notNull": false
          },
          {
            "fieldPath": "sgst",
            "columnName": "sgst",
            "affinity": "TEXT",
            "notNull": false
          },
          {
            "fieldPath": "srno",
            "columnName": "srno",
            "affinity": "TEXT",
            "notNull": false
          },
          {
            "fieldPath": "addoncharges",
            "columnName": "addoncharges",
            "affinity": "TEXT",
            "notNull": false
          },
          {
            "fieldPath": "price",
            "columnName": "price",
            "affinity": "TEXT",
            "notNull": false
          }
        ],
        "primaryKey": {
          "columnNames": [
            "id"
          ],
          "autoGenerate": true
        },
        "indices": [],
        "foreignKeys": []
      }
    ],
    "setupQueries": [
      "CREATE TABLE IF NOT EXISTS room_master_table (id INTEGER PRIMARY KEY,identity_hash TEXT)",
      "INSERT OR REPLACE INTO room_master_table (id,identity_hash) VALUES(42, \"7c07f174fde02d74f9f2a4d205dbac74\")"
    ]
  }
}